spawner_num	addSpawnScript	remSpawnScript	spawnTable	x	y	z	Locale	notes
s	s	s	s	i	i	i	s	s
anchorhead			datatables/spawning/script_spawner/tatooine/anchorhead	31	50	-5350	Anchorhead	Master crackdown spawner for Anchorhead. All Rebel.
bestine			datatables/spawning/script_spawner/tatooine/bestine	-983.8	12	-3746.5	Bestine	Master crackdown spawner for Bestine. All Imperial.
mos_eisley			datatables/spawning/script_spawner/tatooine/mos_eisley	-2563	5	2097	Mos Eisley	
mos_entha			datatables/spawning/script_spawner/tatooine/mos_entha	-2560	6	2119	Mos Entha	
mos_espa			datatables/spawning/script_spawner/tatooine/mos_espa	-983.8	12	-3746.5	Mos Espa	Master crackdown spawner for Mos Espa.
mos_teike			datatables/spawning/script_spawner/tatooine/mos_teike	-2574	5	2139	Mos Espa	Officer Barracks
