spawns	name	room	loc_x	loc_y	loc_z	yaw	script	mood	animation_mood	respawn_time	spawn_objvar	special_room	special_room_script	room_objvar	room_objvar_name	room_objvar_value
s	s	s	f	f	f	f	s	s	s	i	s	s	s	s	s	s
clone_relics_nym		r10	-21	1.6	-16.8	-89			npc_sitting_chair	360		r10				
clone_relics_kole		r10	-23.3	1.6	-17.6	65				360						
