spawns	name	room	loc_x	loc_y	loc_z	yaw	script	mood	animation_mood	respawn_time	spawn_objvar	special_room	special_room_script	room_objvar	room_objvar_name	room_objvar_value	planet_level
s	s	s	f	f	f	f	s	s	s	i	s	s	s	s	s	s	i[0]
singing_mtn_clan_arch_witch		world	-3177.42627	21.82620049	3184.126221	-150	theme_park.dungeon.generic_death			10800	int:ai.defaultCalmBehavior=1						1
singing_mtn_clan_dragoon		world	-3185.501221	22.92370224	3185.802734	-150	theme_park.dungeon.generic_death			10800	int:ai.defaultCalmBehavior=1						1
singing_mtn_clan_dragoon		world	-3180.3	22	3185	-150	theme_park.dungeon.generic_death			10800	int:ai.defaultCalmBehavior=1						1
