spawns	name	room	loc_x	loc_y	loc_z	yaw	script	mood	animation_mood	respawn_time	spawn_objvar	special_room	special_room_script	room_objvar	room_objvar_name	room_objvar_value	planet_level
s	s	s	f	f	f	f	s	s	s	i	s	s	s	s	s	s	i[0]
nightsister_spell_weaver		world	-855.6439819	146.6954956	2787.431885	-150	theme_park.dungeon.generic_death			3600	int:ai.defaultCalmBehavior=2						1
