regionName	geometry	minX_or_centerX	minZ_or_centerZ	maxX_or_radius	maxZ	pvpType	geographicalType	minDifficultyType	maxDifficultyType	spawnableType	missionType	buildable	municipal	visible	notify	environmentFlags
s	"e(rectangle=0,circle=1)[rectangle]"	f	f	f	f	"e(normal=0,truce=1,pvp_battlefield=2,pve_battlefield=3,pvp_advanced=4)[normal]"	"e(desert=0,forest=1,jungle=2,plateau=3,oasis=4,canyon=5,lake=6,lakeshore=7,beach=8,ocean=9,underwater=10,river=11,volcano=12,swamp=13,plains=14,prairie=15,mountains=16,hills=17,grassland=18,wasteland=19,city=20,fictional=21,pathfind=22,default=23,theater=24,overload=25)[default]"	i	i	"e(spawnFalse=0,spawnTrue=1,mission=2,default=3,difficulty=5)[spawnFalse]"	"e(none=0,destroy=1,other=2,tatooine_anchorhead=3,tatooine_bestine=4,tatooine_mos_eisley=5,tatooine_mos_entha=6,tatooine_mos_espa=7,tatooine_mos_teike=8,tatooine_wayfar=9,naboo_theed=10,naboo_deeja_peak=11,naboo_kaadara=12,naboo_moenia=13,naboo_keren=14,tatooine_bib_1=15,corellia_coronet=16,corellia_tyrena=17,corellia_bela_vistal=18,corellia_vreni_island=19,corellia_kor_vella=20,corellia_daoba_guerfel=21,rori_narmle=22,rori_restuss=23,talus_dearic=24,talus_nashal=25,yavin4_labor_outpost=26,yavin4_mining_outpost=27,endor_neutral_outpost=28,dantooine_mining_outpost=29,dantooine_pirate_outpost=30,dathomir_trade_outpost=31,dathomir_survey_outpost=32,lok_nyms_stronghold=33)[none]"	b[1]	b[0]	b[0]	b[0]	s
dungeon1_nobuild	rectangle	-8000	-8000	8000	8000	normal	pathfind	0	0	spawnFalse	none	0	0	0	0	
@dungeon1_region_names:nova_orion_station	rectangle	-5700	0	-5400	300	normal	city	0	0	spawnFalse	none	0	0	0	0	
@dungeon1_region_names:heroic_star_destroyer	rectangle	-7750	5500	7650	7000	normal	city	0	0	spawnFalse	none	0	0	0	0	
